<?xml version="1.0" encoding="UTF-8" standalone="no"?>
<svg
     id="visual"
     viewBox="0 0 1920 1080"
     width="1920"
     height="1080"
     version="1.1"
     sodipodi:docname="default.svg"
     inkscape:version="1.2 (dc2aedaf03, 2022-05-15)"
     xmlns:inkscape="http://www.inkscape.org/namespaces/inkscape"
     xmlns:sodipodi="http://sodipodi.sourceforge.net/DTD/sodipodi-0.dtd"
     xmlns:xlink="http://www.w3.org/1999/xlink"
     xmlns="http://www.w3.org/2000/svg"
     xmlns:svg="http://www.w3.org/2000/svg">
    <sodipodi:namedview
         id="namedview923"
         pagecolor="#505050"
         bordercolor="#ffffff"
         borderopacity="1"
         inkscape:showpageshadow="0"
         inkscape:pageopacity="0"
         inkscape:pagecheckerboard="1"
         inkscape:deskcolor="#505050"
         showgrid="false"
         inkscape:zoom="0.27407407"
         inkscape:cx="669.52703"
         inkscape:cy="529.05405"
         inkscape:window-width="1342"
         inkscape:window-height="768"
         inkscape:window-x="0"
         inkscape:window-y="0"
         inkscape:window-maximized="1"
         inkscape:current-layer="visual" />
    <rect
         x="0"
         y="0"
         width="1920"
         height="1080"
         fill="#001220"
         id="rect808"
         style="fill-opacity:1;fill:url(#linearGradient1961)" />
    <defs
         id="defs815">
        <linearGradient
             inkscape:collect="always"
             id="linearGradient1959">
            <stop
                 style="stop-color:#151220;stop-opacity:1;"
                 offset="0"
                 id="stop1955" />
            <stop
                 style="stop-color:#001900;stop-opacity:1;"
                 offset="1"
                 id="stop1957" />
        </linearGradient>
        <linearGradient
             id="grad1_0"
             x1="43.8%"
             y1="0%"
             x2="100%"
             y2="100%">
            <stop
                 offset="14.444444444444446%"
                 stop-color="#fbae3c"
                 stop-opacity="1"
                 id="stop810" />
            <stop
                 offset="85.55555555555554%"
                 stop-color="#fbae3c"
                 stop-opacity="1"
                 id="stop812" />
        </linearGradient>
        <linearGradient
             inkscape:collect="always"
             xlink:href="#linearGradient1959"
             id="linearGradient1961"
             x1="0"
             y1="540"
             x2="1920"
             y2="540"
             gradientUnits="userSpaceOnUse" />
    </defs>
    <defs
         id="defs822">
        <linearGradient
             id="grad1_1"
             x1="43.8%"
             y1="0%"
             x2="100%"
             y2="100%">
            <stop
                 offset="14.444444444444446%"
                 stop-color="#fbae3c"
                 stop-opacity="1"
                 id="stop817" />
            <stop
                 offset="85.55555555555554%"
                 stop-color="#eb7458"
                 stop-opacity="1"
                 id="stop819" />
        </linearGradient>
    </defs>
    <defs
         id="defs829">
        <linearGradient
             id="grad1_2"
             x1="43.8%"
             y1="0%"
             x2="100%"
             y2="100%">
            <stop
                 offset="14.444444444444446%"
                 stop-color="#b84e6c"
                 stop-opacity="1"
                 id="stop824" />
            <stop
                 offset="85.55555555555554%"
                 stop-color="#eb7458"
                 stop-opacity="1"
                 id="stop826" />
        </linearGradient>
    </defs>
    <defs
         id="defs836">
        <linearGradient
             id="grad1_3"
             x1="43.8%"
             y1="0%"
             x2="100%"
             y2="100%">
            <stop
                 offset="14.444444444444446%"
                 stop-color="#b84e6c"
                 stop-opacity="1"
                 id="stop831" />
            <stop
                 offset="85.55555555555554%"
                 stop-color="#713c69"
                 stop-opacity="1"
                 id="stop833" />
        </linearGradient>
    </defs>
    <defs
         id="defs843">
        <linearGradient
             id="grad1_4"
             x1="43.8%"
             y1="0%"
             x2="100%"
             y2="100%">
            <stop
                 offset="14.444444444444446%"
                 stop-color="#2d2b4c"
                 stop-opacity="1"
                 id="stop838" />
            <stop
                 offset="85.55555555555554%"
                 stop-color="#713c69"
                 stop-opacity="1"
                 id="stop840" />
        </linearGradient>
    </defs>
    <defs
         id="defs850">
        <linearGradient
             id="grad1_5"
             x1="43.8%"
             y1="0%"
             x2="100%"
             y2="100%">
            <stop
                 offset="14.444444444444446%"
                 stop-color="#2d2b4c"
                 stop-opacity="1"
                 id="stop845" />
            <stop
                 offset="85.55555555555554%"
                 stop-color="#001220"
                 stop-opacity="1"
                 id="stop847" />
        </linearGradient>
    </defs>
    <defs
         id="defs857">
        <linearGradient
             id="grad2_0"
             x1="0%"
             y1="0%"
             x2="56.3%"
             y2="100%">
            <stop
                 offset="14.444444444444446%"
                 stop-color="#fbae3c"
                 stop-opacity="1"
                 id="stop852" />
            <stop
                 offset="85.55555555555554%"
                 stop-color="#fbae3c"
                 stop-opacity="1"
                 id="stop854" />
        </linearGradient>
    </defs>
    <defs
         id="defs864">
        <linearGradient
             id="grad2_1"
             x1="0%"
             y1="0%"
             x2="56.3%"
             y2="100%">
            <stop
                 offset="14.444444444444446%"
                 stop-color="#eb7458"
                 stop-opacity="1"
                 id="stop859" />
            <stop
                 offset="85.55555555555554%"
                 stop-color="#fbae3c"
                 stop-opacity="1"
                 id="stop861" />
        </linearGradient>
    </defs>
    <defs
         id="defs871">
        <linearGradient
             id="grad2_2"
             x1="0%"
             y1="0%"
             x2="56.3%"
             y2="100%">
            <stop
                 offset="14.444444444444446%"
                 stop-color="#eb7458"
                 stop-opacity="1"
                 id="stop866" />
            <stop
                 offset="85.55555555555554%"
                 stop-color="#b84e6c"
                 stop-opacity="1"
                 id="stop868" />
        </linearGradient>
    </defs>
    <defs
         id="defs878">
        <linearGradient
             id="grad2_3"
             x1="0%"
             y1="0%"
             x2="56.3%"
             y2="100%">
            <stop
                 offset="14.444444444444446%"
                 stop-color="#713c69"
                 stop-opacity="1"
                 id="stop873" />
            <stop
                 offset="85.55555555555554%"
                 stop-color="#b84e6c"
                 stop-opacity="1"
                 id="stop875" />
        </linearGradient>
    </defs>
    <defs
         id="defs885">
        <linearGradient
             id="grad2_4"
             x1="0%"
             y1="0%"
             x2="56.3%"
             y2="100%">
            <stop
                 offset="14.444444444444446%"
                 stop-color="#713c69"
                 stop-opacity="1"
                 id="stop880" />
            <stop
                 offset="85.55555555555554%"
                 stop-color="#2d2b4c"
                 stop-opacity="1"
                 id="stop882" />
        </linearGradient>
    </defs>
    <defs
         id="defs892">
        <linearGradient
             id="grad2_5"
             x1="0%"
             y1="0%"
             x2="56.3%"
             y2="100%">
            <stop
                 offset="14.444444444444446%"
                 stop-color="#001220"
                 stop-opacity="1"
                 id="stop887" />
            <stop
                 offset="85.55555555555554%"
                 stop-color="#2d2b4c"
                 stop-opacity="1"
                 id="stop889" />
        </linearGradient>
    </defs>
    <g
         transform="translate(1920, 0)"
         id="g906">
        <path
             d="M0 972C-72.4 963.5 -144.9 955 -211.8 928.1C-278.8 901.3 -340.3 856 -382.7 794.7C-425.1 733.3 -448.3 655.9 -485.1 608.3C-521.8 560.6 -572 542.7 -656 523.1C-739.9 503.5 -857.6 482.1 -875.7 421.7C-893.9 361.4 -812.7 262.1 -812.1 185.4C-811.6 108.6 -891.8 54.3 -972 0L0 0Z"
             fill="#131f37"
             id="path894" />
        <path
             d="M0 810C-60.4 802.9 -120.7 795.8 -176.5 773.4C-232.3 751 -283.6 713.3 -318.9 662.2C-354.2 611.1 -373.6 546.6 -404.2 506.9C-434.8 467.2 -476.7 452.3 -546.6 435.9C-616.6 419.6 -714.6 401.7 -729.8 351.4C-744.9 301.2 -677.2 218.4 -676.8 154.5C-676.3 90.5 -743.2 45.2 -810 0L0 0Z"
             fill="#4d345e"
             id="path896" />
        <path
             d="M0 648C-48.3 642.3 -96.6 636.7 -141.2 618.8C-185.9 600.8 -226.9 570.7 -255.1 529.8C-283.4 488.9 -298.9 437.3 -323.4 405.5C-347.9 373.7 -381.3 361.8 -437.3 348.7C-493.3 335.6 -571.7 321.4 -583.8 281.2C-596 240.9 -541.8 174.8 -541.4 123.6C-541.1 72.4 -594.5 36.2 -648 0L0 0Z"
             fill="#96446e"
             id="path898" />
        <path
             d="M0 486C-36.2 481.8 -72.4 477.5 -105.9 464.1C-139.4 450.6 -170.2 428 -191.3 397.3C-212.5 366.7 -224.2 328 -242.5 304.1C-260.9 280.3 -286 271.4 -328 261.6C-369.9 251.7 -428.8 241 -437.9 210.9C-447 180.7 -406.3 131.1 -406.1 92.7C-405.8 54.3 -445.9 27.1 -486 0L0 0Z"
             fill="#d55e64"
             id="path900" />
        <path
             d="M0 324C-24.1 321.2 -48.3 318.3 -70.6 309.4C-92.9 300.4 -113.4 285.3 -127.6 264.9C-141.7 244.4 -149.4 218.6 -161.7 202.8C-173.9 186.9 -190.7 180.9 -218.7 174.4C-246.6 167.8 -285.9 160.7 -291.9 140.6C-298 120.5 -270.9 87.4 -270.7 61.8C-270.5 36.2 -297.3 18.1 -324 0L0 0Z"
             fill="#f88f4a"
             id="path902" />
        <path
             d="M0 162C-12.1 160.6 -24.1 159.2 -35.3 154.7C-46.5 150.2 -56.7 142.7 -63.8 132.4C-70.8 122.2 -74.7 109.3 -80.8 101.4C-87 93.4 -95.3 90.5 -109.3 87.2C-123.3 83.9 -142.9 80.3 -146 70.3C-149 60.2 -135.4 43.7 -135.4 30.9C-135.3 18.1 -148.6 9 -162 0L0 0Z"
             fill="#fbae3c"
             id="path904" />
    </g>
    <g
         transform="translate(0, 1080)"
         id="g920">
        <path
             d="M0 -972C55 -885.9 110.1 -799.8 177.6 -778C245.1 -756.2 325 -798.8 372.7 -773.9C420.4 -749.1 436 -656.7 486.9 -610.6C537.9 -564.5 624.3 -564.5 655.2 -522.5C686 -480.4 661.2 -396.2 712.7 -343.2C764.1 -290.2 891.7 -268.3 947.6 -216.3C1003.6 -164.3 987.8 -82.1 972 0L0 0Z"
             fill="#131f37"
             id="path908" />
        <path
             d="M0 -810C45.9 -738.2 91.7 -666.5 148 -648.3C204.2 -630.2 270.8 -665.7 310.6 -644.9C350.4 -624.2 363.3 -547.3 405.8 -508.8C448.3 -470.4 520.3 -470.5 546 -435.4C571.7 -400.4 551 -330.2 593.9 -286C636.7 -241.8 743.1 -223.6 789.7 -180.2C836.3 -136.9 823.1 -68.5 810 0L0 0Z"
             fill="#4d345e"
             id="path910" />
        <path
             d="M0 -648C36.7 -590.6 73.4 -533.2 118.4 -518.7C163.4 -504.1 216.7 -532.5 248.5 -516C280.3 -499.4 290.6 -437.8 324.6 -407.1C358.6 -376.3 416.2 -376.4 436.8 -348.3C457.3 -320.3 440.8 -264.2 475.1 -228.8C509.4 -193.4 594.5 -178.9 631.8 -144.2C669 -109.5 658.5 -54.8 648 0L0 0Z"
             fill="#96446e"
             id="path912" />
        <path
             d="M0 -486C27.5 -442.9 55 -399.9 88.8 -389C122.5 -378.1 162.5 -399.4 186.4 -387C210.2 -374.5 218 -328.4 243.5 -305.3C269 -282.2 312.2 -282.3 327.6 -261.2C343 -240.2 330.6 -198.1 356.3 -171.6C382 -145.1 445.9 -134.1 473.8 -108.1C501.8 -82.1 493.9 -41.1 486 0L0 0Z"
             fill="#d55e64"
             id="path914" />
        <path
             d="M0 -324C18.3 -295.3 36.7 -266.6 59.2 -259.3C81.7 -252.1 108.3 -266.3 124.2 -258C140.1 -249.7 145.3 -218.9 162.3 -203.5C179.3 -188.2 208.1 -188.2 218.4 -174.2C228.7 -160.1 220.4 -132.1 237.6 -114.4C254.7 -96.7 297.2 -89.4 315.9 -72.1C334.5 -54.8 329.3 -27.4 324 0L0 0Z"
             fill="#f88f4a"
             id="path916" />
        <path
             d="M0 -162C9.2 -147.6 18.3 -133.3 29.6 -129.7C40.8 -126 54.2 -133.1 62.1 -129C70.1 -124.8 72.7 -109.5 81.2 -101.8C89.7 -94.1 104.1 -94.1 109.2 -87.1C114.3 -80.1 110.2 -66 118.8 -57.2C127.3 -48.4 148.6 -44.7 157.9 -36C167.3 -27.4 164.6 -13.7 162 0L0 0Z"
             fill="#fbae3c"
             id="path918" />
    </g>
    <g
         transform="translate(1193.796,764.85778)"
         id="g986"
         style="stroke:#ff93ec;stroke-width:25;stroke-linecap:round;stroke-linejoin:round;stroke-dasharray:none;stroke-opacity:1;paint-order:stroke fill markers">
        <path
             d="M -206.84283,-102.61995 -14.579287,-230.49446 192.35312,-127.83007 206.84283,102.61995 14.579287,230.49446 -192.35312,127.83007 Z"
             fill="none"
             stroke="#04222f"
             stroke-width="2"
             id="path984"
             style="stroke:#ff93ec;stroke-width:25;stroke-linecap:round;stroke-linejoin:round;stroke-dasharray:none;stroke-opacity:1;paint-order:stroke fill markers" />
    </g>
    <g
         transform="translate(284.14762,141.27027)"
         id="g990"
         style="stroke:#969300;stroke-width:15;stroke-linecap:round;stroke-linejoin:round;stroke-dasharray:none;stroke-opacity:1;paint-order:stroke fill markers">
        <path
             d="m 0,-81 70.1,40.5 v 81 L 0,81 -70.1,40.5 v -81 z"
             stroke="#04222f"
             fill="none"
             stroke-width="2"
             id="path988"
             style="stroke:#969300;stroke-width:15;stroke-linecap:round;stroke-linejoin:round;stroke-dasharray:none;stroke-opacity:1;paint-order:stroke fill markers" />
    </g>
    <g
         transform="rotate(-15.115239,4429.9661,-5423.3628)"
         id="g990-3"
         style="stroke:#864600;stroke-width:15;stroke-linecap:round;stroke-linejoin:round;stroke-dasharray:none;stroke-opacity:1;paint-order:stroke fill markers">
        <path
             d="m 0,-81 70.1,40.5 v 81 L 0,81 -70.1,40.5 v -81 z"
             stroke="#04222f"
             fill="none"
             stroke-width="2"
             id="path988-6"
             style="stroke:#864600;stroke-width:15;stroke-linecap:round;stroke-linejoin:round;stroke-dasharray:none;stroke-opacity:1;paint-order:stroke fill markers" />
    </g>
    <g
         transform="rotate(16.80542,-590.48786,2713.9169)"
         id="g998"
         style="stroke:#ff9300;stroke-width:25;stroke-linecap:round;stroke-linejoin:round;stroke-dasharray:none;stroke-opacity:1;paint-order:stroke fill markers">
        <path
             d="m 0,-212 183.6,106 V 106 L 0,212 -183.6,106 v -212 z"
             stroke="#04222f"
             fill="none"
             stroke-width="2"
             id="path996"
             style="stroke:#ff9300;stroke-width:25;stroke-linecap:round;stroke-linejoin:round;stroke-dasharray:none;stroke-opacity:1;paint-order:stroke fill markers" />
    </g>
</svg>
